Amelia,555-5553,amelia.zodiacusque@gmail.com,F
Anthony,555-3412,anthony.asserturo@hotmail.com,A
Becky,555-7685,becky.algebrarum@gmail.com,A
Bill,555-1675,bill.drowning@hotmail.com,A
Broderick,555-0542,broderick.aliquotiens@yahoo.com,R
Camilla,555-2912,camilla.infusarum@skynet.be,R
Fabius,555-1234,fabius.undevicesimus@ucb.edu,F
Julie,555-6699,julie.perscrutabor@skeeve.com,F
Martin,555-6480,martin.codicibus@hotmail.com,A
Samuel,555-3430,samuel.lanceolis@shu.edu,A
Jean-Paul,555-2127,jeanpaul.campanorum@nyu.edu,R
